Indonesia Inequality Project: EDA - Appendix
…
availability %>%
  arrange(dataset, status, field)

# A tibble: 37 × 5
   field                      non_missing_count dataset    total_rows status  
   <chr>                                  <int> <chr>           <int> <fct>   
 1 gdp_growth                                25 gdp                25 Complete
 2 nominal_gdp_lcu                           25 gdp                25 Complete
 3 nominal_gdp_per_capita                    25 gdp                25 Complete
 4 nominal_gdp_per_capita_lcu                25 gdp                25 Complete
 5 ppp_private_consumption                   25 gdp                25 Complete
 6 real_gdp_lcu                              25 gdp                25 Complete
 7 real_gdp_per_capita                       25 gdp                25 Complete
 8 real_gdp_per_capita_lcu                   25 gdp                25 Complete
 9 distribution_bottom10                     25 inequality         25 Complete
10 distribution_top10                        25 inequality         25 Complete
# ℹ 27 more rows
…
